Simple summaries of which regions different neurons innervate — manc_leg_summary • malevnc
…
    Examples

dnals=manc_leg_summary(c(10126, 10118))
dnals
#> # A tibble: 2 × 13
#>   bodyid T1L_in T1L_out T1R_in T1R_out T2L_in T2L_out T2R_in T2R_out T3L_in
#>    <dbl>  <int>   <int>  <int>   <int>  <int>   <int>  <int>   <int>  <int>
#> 1  10126    303    7951      0       0    202    4256      0       0    215
#> 2  10118      0       0    365    7625      0       0    223    4419      0
#> # … with 3 more variables: T3L_out <int>, T3R_in <int>, T3R_out <int>
manc_leg_summary(c(10126, 10118), long=TRUE)
#> Loading required namespace: tidyr
#> # A tibble: 24 × 5
#>    bodyid weight soma_neuromere side  polarity
#>     <dbl>  <int> <chr>          <chr> <chr>   
#>  1  10126    303 T1             L     in      
#>  2  10126   7951 T1             L     out     
#>  3  10126      0 T1             R     in      
#>  4  10126      0 T1             R     out     
#>  5  10126    202 T2             L     in      
#>  6  10126   4256 T2             L     out     
#>  7  10126      0 T2             R     in      
#>  8  10126      0 T2             R     out     
#>  9  10126    215 T3             L     in      
#> 10  10126   5221 T3             L     out     
#> # … with 14 more rows
…
